%YAML 1.1
%TAG !u! tag:unity3d.com,2011:
--- !u!1045 &1
EditorBuildSettings:
  m_ObjectHideFlags: 0
  serializedVersion: 2
  m_Scenes:
  - enabled: 1
    path: Assets/Scenes/StartMenu.unity
    guid: c23c3b5d39f91b34e8efb273b7a3eb16
  - enabled: 1
    path: Assets/Scenes/Level1.unity
    guid: 2cda990e2423bbf4892e6590ba056729
  - enabled: 1
    path: Assets/Scenes/Level2.unity
    guid: b5c31b3e864529549b3d0166b6e01fbc
  - enabled: 1
    path: Assets/Scenes/Level3.unity
    guid: 1d259b4f464ad5049a5b7e491a0fb201
  m_configObjects: {}
